%YAML 1.1
%TAG !u! tag:unity3d.com,2011:
--- !u!1045 &1
EditorBuildSettings:
  m_ObjectHideFlags: 0
  serializedVersion: 2
  m_Scenes:
  - enabled: 1
    path: Assets/Scenes/MainMenu.unity
    guid: 87a4d4f33eb0c924abd053a3f21c8d3c
  - enabled: 1
    path: Assets/Scenes/Levels/Level1.unity
    guid: 7d3193f94c7a3eb4c8f5554bab7f7a6f
  - enabled: 1
    path: Assets/Scenes/Levels/Level2.unity
    guid: b3ef7207dd367dd489280eafced71ffc
  - enabled: 1
    path: Assets/Scenes/Levels/Level3.unity
    guid: 4cf72a99a58dfe240999ca4cb69ba3f9
  m_configObjects: {}
