%YAML 1.1
%TAG !u! tag:unity3d.com,2011:
--- !u!114 &11400000
MonoBehaviour:
  m_ObjectHideFlags: 0
  m_CorrespondingSourceObject: {fileID: 0}
  m_PrefabInstance: {fileID: 0}
  m_PrefabAsset: {fileID: 0}
  m_GameObject: {fileID: 0}
  m_Enabled: 1
  m_EditorHideFlags: 0
  m_Script: {fileID: 11500000, guid: 4b74824bb9ff728458d751fb1ae98e40, type: 3}
  m_Name: Level 7
  m_EditorClassIdentifier: 
  level: 7
  levelCompleted: 1
  listCollectibleTypes:
  - collectible: {fileID: 11400000, guid: 4bf1f2a58df7a4640b8f6db6bfcceb4b, type: 2}
    collected: 0
    collectedAfterCompleted: 0
